# Blender v2.78 (sub 0) OBJ File: '2.blend'
# www.blender.org
mtllib gotowe1.mtl
o Cube.003_Cube.104
v 0.000000 1.500000 0.000000
v 0.000000 1.000000 0.000000
v 0.000000 1.500000 3.000000
v 0.000000 1.000000 3.000000
v -2.000000 0.000000 0.000000
v -2.000000 0.000000 3.000000
v -2.000000 0.500000 0.000000
v -2.000000 0.500000 3.000000
vt 0.3480 0.2669
vt 0.3480 0.5238
vt 0.0033 0.5238
vt 0.0033 0.2669
vt 0.3480 0.0033
vt 0.3480 0.2603
vt 0.0033 0.2603
vt 0.0033 0.0033
vt 0.9660 0.1962
vt 0.9917 0.2476
vt 0.7348 0.2476
vt 0.7091 0.1962
vt 0.7060 0.1127
vt 0.7317 0.0613
vt 0.9886 0.0613
vt 0.9629 0.1127
vt 0.3795 0.5747
vt 0.7242 0.5747
vt 0.7242 0.6321
vt 0.3795 0.6321
vt 0.7242 0.8309
vt 0.7242 0.8884
vt 0.3795 0.8884
vt 0.3795 0.8309
vn -0.4472 0.8944 0.0000
vn 0.4472 -0.8944 0.0000
vn 0.0000 0.0000 1.0000
vn 0.0000 0.0000 -1.0000
vn 1.0000 0.0000 0.0000
vn -1.0000 0.0000 0.0000
usemtl Material
s off
f 1/1/1 7/2/1 8/3/1 3/4/1
f 5/5/2 2/6/2 4/7/2 6/8/2
f 4/9/3 3/10/3 8/11/3 6/12/3
f 5/13/4 7/14/4 1/15/4 2/16/4
f 4/17/5 2/18/5 1/19/5 3/20/5
f 7/21/6 5/22/6 6/23/6 8/24/6
